﻿[
  {
    "outputFile": "wwwroot/StyleSheet.css",
    "inputFile": "wwwroot/StyleSheet.scss"
  },
  {
    "outputFile": "ClientApp/app/components/roomForm/StyleSheet.css",
    "inputFile": "ClientApp/app/components/roomForm/StyleSheet.scss"
  },
  {
    "outputFile": "ClientApp/app/components/roomForm/roomForm.component.css",
    "inputFile": "ClientApp/app/components/roomForm/roomForm.component.scss"
  }
]